BIOS 333 — Week 4 In-Class Assignment: Tidyverse + dplyr
…
12) Heatmap: counts by manufacturer and class

Heatmaps are useful when exact values are less important than
patterns.

We’ll count how many cars each manufacturer has in each class, then
plot a heatmap.

mpg_counts <- mpg %>%
  count(manufacturer, class)

mpg_counts

## # A tibble: 32 × 3
##    manufacturer class          n
##    <chr>        <chr>      <int>
##  1 audi         compact       15
##  2 audi         midsize        3
##  3 chevrolet    2seater        5
##  4 chevrolet    midsize        5
##  5 chevrolet    suv            9
##  6 dodge        minivan       11
##  7 dodge        pickup        19
##  8 dodge        suv            7
##  9 ford         pickup         7
## 10 ford         subcompact     9
## # ℹ 22 more rows
…
